…
```r
cv_df = #creating a cross validation df
  crossv_mc(nonlinear_df, 100)  #100 cross validation runs 
```

However, it’s not compatible with 'gam', so we have to convert each training and testing dataset (and lose that nice memory-saving stuff that 'crossv_mc' does in the process) using the code below. It’s worth noting, though, that if all the models you want to fit use 'lm, you can skip this.



```r
cv_df |> pull(train) |> nth(1) |> as_tibble() #looking at the first element of that list. this is a sample from OG dataset. missing ID 2! its in the test df.
```

```
## # A tibble: 79 × 3
##       id      x      y
##    <int>  <dbl>  <dbl>
##  1     1 0.355   0.930
##  2     2 0.233   0.871
##  3     3 0.787  -1.45 
##  4     4 0.287   0.875
##  5     5 0.779  -1.55 
##  6     6 0.380   0.534
##  7     7 0.0966  0.299
##  8     8 0.492   1.04 
##  9     9 0.0421  0.335
## 10    10 0.413   0.798
## # ℹ 69 more rows
```

```r
cv_df |> pull(test) |> nth(1) |> as_tibble()
```

```
## # A tibble: 21 × 3
##       id     x       y
##    <int> <dbl>   <dbl>
##  1    12 0.512  0.288 
##  2    15 0.630 -0.235 
##  3    16 0.203  0.933 
##  4    19 0.234  1.14  
##  5    26 0.579  0.0535
##  6    28 0.920 -3.23  
##  7    36 0.718 -0.959 
##  8    38 0.728 -0.346 
##  9    39 0.224  0.665 
## 10    45 0.837 -1.95  
## # ℹ 11 more rows
```
…
